<svg width="22" height="20" viewBox="0 0 22 20" fill="none" xmlns="http://www.w3.org/2000/svg">
<line y1="1" x2="22" y2="1" stroke="white" stroke-width="2"/>
<line y1="10" x2="14" y2="10" stroke="white" stroke-width="2"/>
<line y1="19" x2="14" y2="19" stroke="white" stroke-width="2"/>
</svg>
