<svg width="160" height="98" viewBox="0 0 160 98" fill="none" xmlns="http://www.w3.org/2000/svg">
<path d="M80.0002 97.4446C123.69 97.4446 159.107 95.3768 159.107 92.8261C159.107 90.2753 123.69 88.2075 80.0002 88.2075C36.3105 88.2075 0.893066 90.2753 0.893066 92.8261C0.893066 95.3768 36.3105 97.4446 80.0002 97.4446Z" fill="#F5F5F5"/>
<path d="M44.0961 80.8962V24.9675C44.0966 22.5469 43.3547 20.1845 41.9704 18.1988L40.0161 15.3999H74.7369L76.6912 18.1988C78.0755 20.1845 78.8174 22.5469 78.8169 24.9675V80.3658" stroke="#263238" stroke-width="6" stroke-linecap="round" stroke-linejoin="round"/>
<path d="M117.883 93.1565C119.868 93.1565 121.478 91.5472 121.478 89.562C121.478 87.5768 119.868 85.9675 117.883 85.9675C115.898 85.9675 114.289 87.5768 114.289 89.562C114.289 91.5472 115.898 93.1565 117.883 93.1565Z" fill="#263238"/>
<path opacity="0.4" d="M119.682 89.5621C119.683 89.2061 119.578 88.8578 119.381 88.5614C119.184 88.265 118.903 88.0337 118.574 87.8969C118.245 87.7601 117.884 87.7239 117.534 87.7929C117.185 87.8618 116.864 88.0329 116.612 88.2843C116.36 88.5358 116.188 88.8564 116.118 89.2055C116.049 89.5547 116.084 89.9166 116.22 90.2457C116.356 90.5747 116.587 90.8559 116.883 91.0538C117.179 91.2517 117.527 91.3573 117.883 91.3573C118.119 91.3579 118.353 91.3118 118.571 91.2218C118.789 91.1319 118.988 90.9997 119.155 90.833C119.322 90.6662 119.455 90.4681 119.545 90.2501C119.635 90.032 119.682 89.7982 119.682 89.5621Z" fill="white"/>
<path d="M117.45 90.3617C117.17 90.3614 116.896 90.2752 116.667 90.1147C116.437 89.9542 116.262 89.7272 116.165 89.4641L114.047 83.6624H118.817V88.9949C118.817 89.3574 118.673 89.7051 118.417 89.9614C118.16 90.2177 117.813 90.3617 117.45 90.3617Z" fill="#263238"/>
<path opacity="0.2" d="M117.45 90.3617C117.17 90.3614 116.896 90.2752 116.667 90.1147C116.437 89.9542 116.262 89.7272 116.165 89.4641L114.047 83.6624H118.817V88.9949C118.817 89.3574 118.673 89.7051 118.417 89.9614C118.16 90.2177 117.813 90.3617 117.45 90.3617Z" fill="white"/>
<path d="M77.8987 93.1565C79.8839 93.1565 81.4932 91.5472 81.4932 89.562C81.4932 87.5768 79.8839 85.9675 77.8987 85.9675C75.9135 85.9675 74.3042 87.5768 74.3042 89.562C74.3042 91.5472 75.9135 93.1565 77.8987 93.1565Z" fill="#263238"/>
<path opacity="0.4" d="M79.6982 89.5621C79.699 89.2061 79.5941 88.8578 79.3969 88.5614C79.1997 88.265 78.919 88.0337 78.5903 87.8969C78.2616 87.7601 77.8997 87.7239 77.5504 87.7929C77.2011 87.8618 76.8801 88.0329 76.6281 88.2843C76.376 88.5358 76.2042 88.8564 76.1345 89.2055C76.0647 89.5547 76.1001 89.9166 76.2362 90.2457C76.3722 90.5747 76.6029 90.8559 76.8988 91.0538C77.1948 91.2517 77.5429 91.3573 77.8989 91.3573C78.135 91.3579 78.3689 91.3118 78.5871 91.2218C78.8054 91.1319 79.0038 90.9997 79.1709 90.833C79.3381 90.6662 79.4707 90.4681 79.5611 90.2501C79.6516 90.032 79.6982 89.7982 79.6982 89.5621Z" fill="white"/>
<path d="M77.4662 90.3617C77.1859 90.3614 76.9124 90.2752 76.6826 90.1147C76.4528 89.9542 76.2778 89.7272 76.181 89.4641L74.0635 83.6624H78.833V88.9949C78.833 89.3574 78.689 89.7051 78.4327 89.9614C78.1764 90.2177 77.8287 90.3617 77.4662 90.3617Z" fill="#263238"/>
<path opacity="0.2" d="M77.4662 90.3617C77.1859 90.3614 76.9124 90.2752 76.6826 90.1147C76.4528 89.9542 76.2778 89.7272 76.181 89.4641L74.0635 83.6624H78.833V88.9949C78.833 89.3574 78.689 89.7051 78.4327 89.9614C78.1764 90.2177 77.8287 90.3617 77.4662 90.3617Z" fill="white"/>
<path d="M124.064 79.4805V82.875C124.064 83.1791 123.943 83.4707 123.728 83.6857C123.513 83.9007 123.222 84.0215 122.918 84.0215H42.5703C42.2662 84.0215 41.9746 83.9007 41.7596 83.6857C41.5446 83.4707 41.4238 83.1791 41.4238 82.875V79.4805H124.064Z" fill="#263238"/>
<path opacity="0.4" d="M124.064 79.4805V82.875C124.064 83.1791 123.943 83.4707 123.728 83.6857C123.513 83.9007 123.222 84.0215 122.918 84.0215H42.5703C42.2662 84.0215 41.9746 83.9007 41.7596 83.6857C41.5446 83.4707 41.4238 83.1791 41.4238 82.875V79.4805H124.064Z" fill="white"/>
<path opacity="0.2" d="M95.5043 79.4805V82.875C95.5043 83.1791 95.3835 83.4707 95.1685 83.6857C94.9534 83.9007 94.6618 84.0215 94.3578 84.0215H42.5703C42.2662 84.0215 41.9746 83.9007 41.7596 83.6857C41.5446 83.4707 41.4238 83.1791 41.4238 82.875V79.4805H95.5043Z" fill="white"/>
<path d="M88.9148 93.1565C90.9 93.1565 92.5093 91.5472 92.5093 89.562C92.5093 87.5768 90.9 85.9675 88.9148 85.9675C86.9296 85.9675 85.3203 87.5768 85.3203 89.562C85.3203 91.5472 86.9296 93.1565 88.9148 93.1565Z" fill="#263238"/>
<path opacity="0.6" d="M90.7143 89.5621C90.7151 89.2061 90.6102 88.8578 90.413 88.5614C90.2158 88.265 89.9351 88.0337 89.6064 87.8969C89.2777 87.7601 88.9158 87.7239 88.5665 87.7929C88.2172 87.8618 87.8962 88.0329 87.6442 88.2843C87.3921 88.5358 87.2204 88.8564 87.1506 89.2055C87.0808 89.5547 87.1162 89.9166 87.2523 90.2457C87.3884 90.5747 87.619 90.8559 87.9149 91.0538C88.2109 91.2517 88.559 91.3573 88.915 91.3573C89.1511 91.3579 89.385 91.3118 89.6032 91.2218C89.8215 91.1319 90.0199 90.9997 90.187 90.833C90.3542 90.6662 90.4868 90.4681 90.5772 90.2501C90.6677 90.032 90.7143 89.7982 90.7143 89.5621Z" fill="white"/>
<path d="M88.4823 90.3617C88.202 90.3614 87.9285 90.2752 87.6987 90.1147C87.469 89.9542 87.2939 89.7272 87.1971 89.4641L85.0796 83.6624H89.8491V88.9949C89.8491 89.3574 89.7051 89.7051 89.4488 89.9614C89.1925 90.2177 88.8448 90.3617 88.4823 90.3617Z" fill="#263238"/>
<path opacity="0.4" d="M88.4823 90.3617C88.202 90.3614 87.9285 90.2752 87.6987 90.1147C87.469 89.9542 87.2939 89.7272 87.1971 89.4641L85.0796 83.6624H89.8491V88.9949C89.8491 89.3574 89.7051 89.7051 89.4488 89.9614C89.1925 90.2177 88.8448 90.3617 88.4823 90.3617Z" fill="white"/>
<path d="M48.9309 93.1565C50.9161 93.1565 52.5254 91.5472 52.5254 89.562C52.5254 87.5768 50.9161 85.9675 48.9309 85.9675C46.9457 85.9675 45.3364 87.5768 45.3364 89.562C45.3364 91.5472 46.9457 93.1565 48.9309 93.1565Z" fill="#263238"/>
<path opacity="0.6" d="M50.7304 89.5621C50.7312 89.2061 50.6264 88.8578 50.4292 88.5614C50.2319 88.265 49.9512 88.0337 49.6225 87.8969C49.2938 87.7601 48.9319 87.7239 48.5826 87.7929C48.2333 87.8618 47.9123 88.0329 47.6603 88.2843C47.4082 88.5358 47.2365 88.8564 47.1667 89.2055C47.097 89.5547 47.1323 89.9166 47.2684 90.2457C47.4045 90.5747 47.6351 90.8559 47.9311 91.0538C48.227 91.2517 48.5751 91.3573 48.9311 91.3573C49.1672 91.3579 49.4011 91.3118 49.6194 91.2218C49.8376 91.1319 50.036 90.9997 50.2032 90.833C50.3703 90.6662 50.5029 90.4681 50.5934 90.2501C50.6838 90.032 50.7304 89.7982 50.7304 89.5621Z" fill="white"/>
<path d="M48.4984 90.3617C48.2181 90.3614 47.9447 90.2752 47.7149 90.1147C47.4851 89.9542 47.31 89.7272 47.2132 89.4641L45.0957 83.6624H49.8652V88.9949C49.8652 89.3574 49.7212 89.7051 49.4649 89.9614C49.2086 90.2177 48.8609 90.3617 48.4984 90.3617Z" fill="#263238"/>
<path opacity="0.4" d="M48.4984 90.3617C48.2181 90.3614 47.9447 90.2752 47.7149 90.1147C47.4851 89.9542 47.31 89.7272 47.2132 89.4641L45.0957 83.6624H49.8652V88.9949C49.8652 89.3574 49.7212 89.7051 49.4649 89.9614C49.2086 90.2177 48.8609 90.3617 48.4984 90.3617Z" fill="white"/>
<path d="M89.421 53.144H51.375V79.4804H89.421V53.144Z" fill="#009FE3"/>
<path opacity="0.4" d="M89.421 53.144H51.375V79.4804H89.421V53.144Z" fill="white"/>
<path opacity="0.2" d="M69.0292 53.144H51.375V79.4804H69.0292V53.144Z" fill="white"/>
<path opacity="0.2" d="M67.3605 73.9111H65.1532C64.9459 73.9111 64.7778 74.0792 64.7778 74.2865V77.3016C64.7778 77.5089 64.9459 77.677 65.1532 77.677H67.3605C67.5678 77.677 67.7358 77.5089 67.7358 77.3016V74.2865C67.7358 74.0792 67.5678 73.9111 67.3605 73.9111Z" fill="black"/>
<path opacity="0.2" d="M63.378 73.9111H61.1708C60.9635 73.9111 60.7954 74.0792 60.7954 74.2865V77.3016C60.7954 77.5089 60.9635 77.677 61.1708 77.677H63.378C63.5853 77.677 63.7534 77.5089 63.7534 77.3016V74.2865C63.7534 74.0792 63.5853 73.9111 63.378 73.9111Z" fill="black"/>
<path opacity="0.4" d="M81.2405 53.144H79.0903V55.8899H81.2405V53.144Z" fill="black"/>
<path opacity="0.2" d="M87.12 64.3887H72.3096V67.8322H87.12V64.3887Z" fill="black"/>
<path opacity="0.2" d="M57.5887 54.5149H52.5254V59.5782H57.5887V54.5149Z" fill="black"/>
<path d="M93.3053 26.8076H55.2593V53.144H93.3053V26.8076Z" fill="#009FE3"/>
<path opacity="0.4" d="M93.3053 26.8076H55.2593V53.144H93.3053V26.8076Z" fill="black"/>
<path opacity="0.2" d="M72.9134 26.8076H55.2593V53.144H72.9134V26.8076Z" fill="white"/>
<path opacity="0.2" d="M71.2482 47.5747H69.0409C68.8336 47.5747 68.6655 47.7428 68.6655 47.9501V50.9652C68.6655 51.1725 68.8336 51.3406 69.0409 51.3406H71.2482C71.4555 51.3406 71.6235 51.1725 71.6235 50.9652V47.9501C71.6235 47.7428 71.4555 47.5747 71.2482 47.5747Z" fill="black"/>
<path opacity="0.2" d="M67.2662 47.5747H65.059C64.8516 47.5747 64.6836 47.7428 64.6836 47.9501V50.9652C64.6836 51.1725 64.8516 51.3406 65.059 51.3406H67.2662C67.4735 51.3406 67.6416 51.1725 67.6416 50.9652V47.9501C67.6416 47.7428 67.4735 47.5747 67.2662 47.5747Z" fill="black"/>
<path opacity="0.4" d="M85.1248 26.8076H82.9746V29.5535H85.1248V26.8076Z" fill="black"/>
<path opacity="0.2" d="M91.0037 38.0522H76.1934V41.4958H91.0037V38.0522Z" fill="black"/>
<path opacity="0.2" d="M61.4769 28.1785H56.4136V33.2418H61.4769V28.1785Z" fill="black"/>
<path d="M116.594 26.8076H78.5479V53.144H116.594V26.8076Z" fill="#009FE3"/>
<path opacity="0.4" d="M116.594 26.8076H78.5479V53.144H116.594V26.8076Z" fill="white"/>
<path opacity="0.2" d="M96.202 26.8076H78.5479V53.144H96.202V26.8076Z" fill="white"/>
<path opacity="0.2" d="M94.5372 47.5747H92.33C92.1226 47.5747 91.9546 47.7428 91.9546 47.9501V50.9652C91.9546 51.1725 92.1226 51.3406 92.33 51.3406H94.5372C94.7445 51.3406 94.9126 51.1725 94.9126 50.9652V47.9501C94.9126 47.7428 94.7445 47.5747 94.5372 47.5747Z" fill="black"/>
<path opacity="0.2" d="M90.5548 47.5747H88.3475C88.1402 47.5747 87.9722 47.7428 87.9722 47.9501V50.9652C87.9722 51.1725 88.1402 51.3406 88.3475 51.3406H90.5548C90.7621 51.3406 90.9302 51.1725 90.9302 50.9652V47.9501C90.9302 47.7428 90.7621 47.5747 90.5548 47.5747Z" fill="black"/>
<path opacity="0.4" d="M108.413 26.8076H106.263V29.5535H108.413V26.8076Z" fill="black"/>
<path opacity="0.2" d="M114.292 38.0522H99.4819V41.4958H114.292V38.0522Z" fill="black"/>
<path opacity="0.2" d="M84.7654 28.1785H79.7021V33.2418H84.7654V28.1785Z" fill="black"/>
<path d="M103.436 0.471191H65.3896V26.8076H103.436V0.471191Z" fill="#009FE3"/>
<path opacity="0.2" d="M83.0438 0.471191H65.3896V26.8076H83.0438V0.471191Z" fill="white"/>
<path opacity="0.2" d="M81.3751 21.2385H79.1678C78.9605 21.2385 78.7925 21.4066 78.7925 21.6139V24.629C78.7925 24.8363 78.9605 25.0043 79.1678 25.0043H81.3751C81.5824 25.0043 81.7505 24.8363 81.7505 24.629V21.6139C81.7505 21.4066 81.5824 21.2385 81.3751 21.2385Z" fill="black"/>
<path opacity="0.2" d="M77.3971 21.2385H75.1898C74.9825 21.2385 74.8145 21.4066 74.8145 21.6139V24.629C74.8145 24.8363 74.9825 25.0043 75.1898 25.0043H77.3971C77.6044 25.0043 77.7725 24.8363 77.7725 24.629V21.6139C77.7725 21.4066 77.6044 21.2385 77.3971 21.2385Z" fill="black"/>
<path opacity="0.4" d="M95.2551 0.471191H93.105V3.21703H95.2551V0.471191Z" fill="black"/>
<path opacity="0.2" d="M101.135 11.7156H86.3242V15.1591H101.135V11.7156Z" fill="black"/>
<path opacity="0.2" d="M71.6038 1.84204H66.5405V6.90532H71.6038V1.84204Z" fill="black"/>
<path d="M113.631 53.144H75.5854V79.4804H113.631V53.144Z" fill="#263238"/>
<path opacity="0.2" d="M113.631 53.144H75.5854V79.4804H113.631V53.144Z" fill="white"/>
<path opacity="0.2" d="M93.2396 53.144H75.5854V79.4804H93.2396V53.144Z" fill="white"/>
<path opacity="0.2" d="M91.5709 73.9111H89.3636C89.1563 73.9111 88.9883 74.0792 88.9883 74.2865V77.3016C88.9883 77.5089 89.1563 77.677 89.3636 77.677H91.5709C91.7782 77.677 91.9463 77.5089 91.9463 77.3016V74.2865C91.9463 74.0792 91.7782 73.9111 91.5709 73.9111Z" fill="black"/>
<path opacity="0.2" d="M87.589 73.9111H85.3817C85.1744 73.9111 85.0063 74.0792 85.0063 74.2865V77.3016C85.0063 77.5089 85.1744 77.677 85.3817 77.677H87.589C87.7963 77.677 87.9643 77.5089 87.9643 77.3016V74.2865C87.9643 74.0792 87.7963 73.9111 87.589 73.9111Z" fill="black"/>
<path opacity="0.4" d="M105.451 53.144H103.301V55.8899H105.451V53.144Z" fill="black"/>
<path opacity="0.2" d="M111.33 64.3887H96.52V67.8322H111.33V64.3887Z" fill="black"/>
<path opacity="0.2" d="M81.7991 54.5149H76.7358V59.5782H81.7991V54.5149Z" fill="black"/>
</svg>
